sim/log/31_counter_run.log
# vsim -coverage -l 31_counter_run.log -c test_bench -voptargs="+cover=bcesft" -assertdebug -do "coverage save -onexit 31_counter_run.ucdb; log -r /*;run -all" 
# Start time: 19:56:38 on Dec 01,2025
# ** Note: (vsim-3813) Design is being optimized due to module recompilation...
# //  Questa Intel Starter FPGA Edition-64
# //  Version 2024.3 linux_x86_64 Sep 10 2024
# //
# // Unpublished work. Copyright 2024 Siemens
# //
# // This material contains trade secrets or otherwise confidential information
# // owned by Siemens Industry Software Inc. or its affiliates (collectively,
# // "SISW"), or its licensors. Access to and use of this information is strictly
# // limited as set forth in the Customer's applicable agreements with SISW.
# //
# // This material may not be copied, distributed, or otherwise disclosed outside
# // of the Customer's facilities without the express written permission of SISW,
# // and may not be used in any way not expressly authorized by SISW.
# //
# Loading work.test_bench(fast)
# coverage save -onexit 31_counter_run.ucdb
#  log -r /*
# run -all
# =============================================
# [              Pat name: COUNTER             ]
# ==============================================
# ==========[  COUNTER DEFAULT MODE   ]=========
# ==============================================
# -------------------------------------------------------------------------------------
# ----------------   1: STOP TIMER (timer_en=0)      ----------------------------------
# [ t =        100 ] WRITE data=32'h00000000 to addr=12'h000 with strb=4'b1111 
# ---------     2: WRITE RELOAD (split from cnt[63:0] -> TDR0/TDR1    -----------------
# [ t =        230 ] WRITE data=32'h00000000 to addr=12'h004 with strb=4'b1111 
# [ t =        311 ] WRITE data=32'h00000000 to addr=12'h008 with strb=4'b1111 
# [ t =        391 ] SETUP COUNTER INIT = 64'h0000000000000000 
# ---------       3: WRITE DIV_VAL + DIV_EN WHILE TIMER OFF     -----------------
# [ t =        391 ] WRITE data=32'h00000300 to addr=12'h000 with strb=4'b1111 
# [ t =        551 ] READ at addr = 12'h000 , the rdata actual = 32'h00000300 
# [ t =        551 ] expect that rdata at addr=12'h000 is 32'h00000300 
# [ t =        551 ]    >>>  PASS <<<     |   rdata actual =32'h00000300   =  rdata expect =32'h00000300 
# -------------------------------------------------------------------------------------
# [ t =        551 ] SETUP DIV_VAL = 4'b0011 & DIV_EN = 1'b0 
# ----------------  4: START TIMER (timer_en=1)      ----------------------------------
# [ t =        551 ] WRITE data=32'h00000301 to addr=12'h000 with strb=4'b1111 
# ----------------     5: AFTER           5 CYCLE      ----------------------------------
# [t=       650] CNT_EN = 1 -> CNT64 = 1 (0x0000000000000001)
# [t=       670] CNT_EN = 1 -> CNT64 = 2 (0x0000000000000002)
# [t=       690] CNT_EN = 1 -> CNT64 = 3 (0x0000000000000003)
# [t=       710] CNT_EN = 1 -> CNT64 = 4 (0x0000000000000004)
# [t=       730] CNT_EN = 1 -> CNT64 = 5 (0x0000000000000005)
# [ t =        730 ] COUNTER VAL NOW = 64'h0000000000000005 
# -------------------------------------------------------------------------------------
# EXPECTED CNT64 = 5 (0x0000000000000005)
# ACTUAL   CNT64 = 5 (0x0000000000000005)
#    >>> PASS <<<
# -----------------------------------------
# -------------------------------------------------------------------------------------
# ----------------   1: STOP TIMER (timer_en=0)      ----------------------------------
# [ t =        730 ] WRITE data=32'h00000000 to addr=12'h000 with strb=4'b1111 
# ---------     2: WRITE RELOAD (split from cnt[63:0] -> TDR0/TDR1    -----------------
# [ t =        870 ] WRITE data=32'h00000003 to addr=12'h004 with strb=4'b1111 
# [ t =        951 ] WRITE data=32'h00000000 to addr=12'h008 with strb=4'b1111 
# [ t =       1031 ] SETUP COUNTER INIT = 64'h0000000000000003 
# ---------       3: WRITE DIV_VAL + DIV_EN WHILE TIMER OFF     -----------------
# [ t =       1031 ] WRITE data=32'h00000002 to addr=12'h000 with strb=4'b1111 
# [ t =       1191 ] READ at addr = 12'h000 , the rdata actual = 32'h00000002 
# [ t =       1191 ] expect that rdata at addr=12'h000 is 32'h00000002 
# [ t =       1191 ]    >>>  PASS <<<     |   rdata actual =32'h00000002   =  rdata expect =32'h00000002 
# -------------------------------------------------------------------------------------
# [ t =       1191 ] SETUP DIV_VAL = 4'b0000 & DIV_EN = 1'b1 
# ----------------  4: START TIMER (timer_en=1)      ----------------------------------
# [ t =       1191 ] WRITE data=32'h00000003 to addr=12'h000 with strb=4'b1111 
# ----------------     5: AFTER           3 CYCLE      ----------------------------------
# [t=      1290] CNT_EN = 1 -> CNT64 = 4 (0x0000000000000004)
# [t=      1310] CNT_EN = 1 -> CNT64 = 5 (0x0000000000000005)
# [t=      1330] CNT_EN = 1 -> CNT64 = 6 (0x0000000000000006)
# [ t =       1330 ] COUNTER VAL NOW = 64'h0000000000000006 
# -------------------------------------------------------------------------------------
# EXPECTED CNT64 = 6 (0x0000000000000006)
# ACTUAL   CNT64 = 6 (0x0000000000000006)
#    >>> PASS <<<
# -----------------------------------------
# -------------------------------------------------------------------------------------
# ----------------   1: STOP TIMER (timer_en=0)      ----------------------------------
# [ t =       1330 ] WRITE data=32'h00000000 to addr=12'h000 with strb=4'b1111 
# ---------     2: WRITE RELOAD (split from cnt[63:0] -> TDR0/TDR1    -----------------
# [ t =       1470 ] WRITE data=32'h12341230 to addr=12'h004 with strb=4'b1111 
# [ t =       1551 ] WRITE data=32'h12341234 to addr=12'h008 with strb=4'b1111 
# [ t =       1631 ] SETUP COUNTER INIT = 64'h1234123412341230 
# ---------       3: WRITE DIV_VAL + DIV_EN WHILE TIMER OFF     -----------------
# [ t =       1631 ] WRITE data=32'h00000000 to addr=12'h000 with strb=4'b1111 
# [ t =       1791 ] READ at addr = 12'h000 , the rdata actual = 32'h00000000 
# [ t =       1791 ] expect that rdata at addr=12'h000 is 32'h00000000 
# [ t =       1791 ]    >>>  PASS <<<     |   rdata actual =32'h00000000   =  rdata expect =32'h00000000 
# -------------------------------------------------------------------------------------
# [ t =       1791 ] SETUP DIV_VAL = 4'b0000 & DIV_EN = 1'b0 
# ----------------  4: START TIMER (timer_en=1)      ----------------------------------
# [ t =       1791 ] WRITE data=32'h00000001 to addr=12'h000 with strb=4'b1111 
# ----------------     5: AFTER           7 CYCLE      ----------------------------------
# [t=      1890] CNT_EN = 1 -> CNT64 = 1311693406324658737 (0x1234123412341231)
# [t=      1910] CNT_EN = 1 -> CNT64 = 1311693406324658738 (0x1234123412341232)
# [t=      1930] CNT_EN = 1 -> CNT64 = 1311693406324658739 (0x1234123412341233)
# [t=      1950] CNT_EN = 1 -> CNT64 = 1311693406324658740 (0x1234123412341234)
# [t=      1970] CNT_EN = 1 -> CNT64 = 1311693406324658741 (0x1234123412341235)
# [t=      1990] CNT_EN = 1 -> CNT64 = 1311693406324658742 (0x1234123412341236)
# [t=      2010] CNT_EN = 1 -> CNT64 = 1311693406324658743 (0x1234123412341237)
# [ t =       2010 ] COUNTER VAL NOW = 64'h1234123412341237 
# -------------------------------------------------------------------------------------
# EXPECTED CNT64 = 1311693406324658743 (0x1234123412341237)
# ACTUAL   CNT64 = 1311693406324658743 (0x1234123412341237)
#    >>> PASS <<<
# -----------------------------------------
# ==============================================
# ==========[     COUNTER DIV MODE    ]=========
# ==============================================
# -------------------------------------------------------------------------------------
# ----------------   1: STOP TIMER (timer_en=0)      ----------------------------------
# [ t =       2010 ] WRITE data=32'h00000000 to addr=12'h000 with strb=4'b1111 
# ---------     2: WRITE RELOAD (split from cnt[63:0] -> TDR0/TDR1    -----------------
# [ t =       2150 ] WRITE data=32'h00000000 to addr=12'h004 with strb=4'b1111 
# [ t =       2231 ] WRITE data=32'h00000000 to addr=12'h008 with strb=4'b1111 
# [ t =       2311 ] SETUP COUNTER INIT = 64'h0000000000000000 
# ---------       3: WRITE DIV_VAL + DIV_EN WHILE TIMER OFF     -----------------
# [ t =       2311 ] WRITE data=32'h00000102 to addr=12'h000 with strb=4'b1111 
# [ t =       2471 ] READ at addr = 12'h000 , the rdata actual = 32'h00000102 
# [ t =       2471 ] expect that rdata at addr=12'h000 is 32'h00000102 
# [ t =       2471 ]    >>>  PASS <<<     |   rdata actual =32'h00000102   =  rdata expect =32'h00000102 
# -------------------------------------------------------------------------------------
# [ t =       2471 ] SETUP DIV_VAL = 4'b0001 & DIV_EN = 1'b1 
# ----------------  4: START TIMER (timer_en=1)      ----------------------------------
# [ t =       2471 ] WRITE data=32'h00000103 to addr=12'h000 with strb=4'b1111 
# ----------------     5: AFTER           2 CYCLE      ----------------------------------
# [t=      2570] CNT_EN = 0 -> CNT64 = 0 (0x0000000000000000)
# [t=      2590] CNT_EN = 1 -> CNT64 = 1 (0x0000000000000001)
# [ t =       2590 ] COUNTER VAL NOW = 64'h0000000000000001 
# -------------------------------------------------------------------------------------
# EXPECTED CNT64 = 1 (0x0000000000000001)
# ACTUAL   CNT64 = 1 (0x0000000000000001)
#    >>> PASS <<<
# -----------------------------------------
# -------------------------------------------------------------------------------------
# ----------------   1: STOP TIMER (timer_en=0)      ----------------------------------
# [ t =       2590 ] WRITE data=32'h00000000 to addr=12'h000 with strb=4'b1111 
# ---------     2: WRITE RELOAD (split from cnt[63:0] -> TDR0/TDR1    -----------------
# [ t =       2730 ] WRITE data=32'h00000000 to addr=12'h004 with strb=4'b1111 
# [ t =       2811 ] WRITE data=32'h00000000 to addr=12'h008 with strb=4'b1111 
# [ t =       2891 ] SETUP COUNTER INIT = 64'h0000000000000000 
# ---------       3: WRITE DIV_VAL + DIV_EN WHILE TIMER OFF     -----------------
# [ t =       2891 ] WRITE data=32'h00000202 to addr=12'h000 with strb=4'b1111 
# [ t =       3051 ] READ at addr = 12'h000 , the rdata actual = 32'h00000202 
# [ t =       3051 ] expect that rdata at addr=12'h000 is 32'h00000202 
# [ t =       3051 ]    >>>  PASS <<<     |   rdata actual =32'h00000202   =  rdata expect =32'h00000202 
# -------------------------------------------------------------------------------------
# [ t =       3051 ] SETUP DIV_VAL = 4'b0010 & DIV_EN = 1'b1 
# ----------------  4: START TIMER (timer_en=1)      ----------------------------------
# [ t =       3051 ] WRITE data=32'h00000203 to addr=12'h000 with strb=4'b1111 
# ----------------     5: AFTER           4 CYCLE      ----------------------------------
# [t=      3150] CNT_EN = 0 -> CNT64 = 0 (0x0000000000000000)
# [t=      3170] CNT_EN = 0 -> CNT64 = 0 (0x0000000000000000)
# [t=      3190] CNT_EN = 0 -> CNT64 = 0 (0x0000000000000000)
# [t=      3210] CNT_EN = 1 -> CNT64 = 1 (0x0000000000000001)
# [ t =       3210 ] COUNTER VAL NOW = 64'h0000000000000001 
# -------------------------------------------------------------------------------------
# EXPECTED CNT64 = 1 (0x0000000000000001)
# ACTUAL   CNT64 = 1 (0x0000000000000001)
#    >>> PASS <<<
# -----------------------------------------
# -------------------------------------------------------------------------------------
# ----------------   1: STOP TIMER (timer_en=0)      ----------------------------------
# [ t =       3210 ] WRITE data=32'h00000000 to addr=12'h000 with strb=4'b1111 
# ---------     2: WRITE RELOAD (split from cnt[63:0] -> TDR0/TDR1    -----------------
# [ t =       3350 ] WRITE data=32'h00000000 to addr=12'h004 with strb=4'b1111 
# [ t =       3431 ] WRITE data=32'h00000000 to addr=12'h008 with strb=4'b1111 
# [ t =       3511 ] SETUP COUNTER INIT = 64'h0000000000000000 
# ---------       3: WRITE DIV_VAL + DIV_EN WHILE TIMER OFF     -----------------
# [ t =       3511 ] WRITE data=32'h00000302 to addr=12'h000 with strb=4'b1111 
# [ t =       3671 ] READ at addr = 12'h000 , the rdata actual = 32'h00000302 
# [ t =       3671 ] expect that rdata at addr=12'h000 is 32'h00000302 
# [ t =       3671 ]    >>>  PASS <<<     |   rdata actual =32'h00000302   =  rdata expect =32'h00000302 
# -------------------------------------------------------------------------------------
# [ t =       3671 ] SETUP DIV_VAL = 4'b0011 & DIV_EN = 1'b1 
# ----------------  4: START TIMER (timer_en=1)      ----------------------------------
# [ t =       3671 ] WRITE data=32'h00000303 to addr=12'h000 with strb=4'b1111 
# ----------------     5: AFTER           8 CYCLE      ----------------------------------
# [t=      3770] CNT_EN = 0 -> CNT64 = 0 (0x0000000000000000)
# [t=      3790] CNT_EN = 0 -> CNT64 = 0 (0x0000000000000000)
# [t=      3810] CNT_EN = 0 -> CNT64 = 0 (0x0000000000000000)
# [t=      3830] CNT_EN = 0 -> CNT64 = 0 (0x0000000000000000)
# [t=      3850] CNT_EN = 0 -> CNT64 = 0 (0x0000000000000000)
# [t=      3870] CNT_EN = 0 -> CNT64 = 0 (0x0000000000000000)
# [t=      3890] CNT_EN = 0 -> CNT64 = 0 (0x0000000000000000)
# [t=      3910] CNT_EN = 1 -> CNT64 = 1 (0x0000000000000001)
# [ t =       3910 ] COUNTER VAL NOW = 64'h0000000000000001 
# -------------------------------------------------------------------------------------
# EXPECTED CNT64 = 1 (0x0000000000000001)
# ACTUAL   CNT64 = 1 (0x0000000000000001)
#    >>> PASS <<<
# -----------------------------------------
# -------------------------------------------------------------------------------------
# ----------------   1: STOP TIMER (timer_en=0)      ----------------------------------
# [ t =       3910 ] WRITE data=32'h00000000 to addr=12'h000 with strb=4'b1111 
# ---------     2: WRITE RELOAD (split from cnt[63:0] -> TDR0/TDR1    -----------------
# [ t =       4050 ] WRITE data=32'h00000000 to addr=12'h004 with strb=4'b1111 
# [ t =       4131 ] WRITE data=32'h00000000 to addr=12'h008 with strb=4'b1111 
# [ t =       4211 ] SETUP COUNTER INIT = 64'h0000000000000000 
# ---------       3: WRITE DIV_VAL + DIV_EN WHILE TIMER OFF     -----------------
# [ t =       4211 ] WRITE data=32'h00000402 to addr=12'h000 with strb=4'b1111 
# [ t =       4371 ] READ at addr = 12'h000 , the rdata actual = 32'h00000402 
# [ t =       4371 ] expect that rdata at addr=12'h000 is 32'h00000402 
# [ t =       4371 ]    >>>  PASS <<<     |   rdata actual =32'h00000402   =  rdata expect =32'h00000402 
# -------------------------------------------------------------------------------------
# [ t =       4371 ] SETUP DIV_VAL = 4'b0100 & DIV_EN = 1'b1 
# ----------------  4: START TIMER (timer_en=1)      ----------------------------------
# [ t =       4371 ] WRITE data=32'h00000403 to addr=12'h000 with strb=4'b1111 
# ----------------     5: AFTER          16 CYCLE      ----------------------------------
# [t=      4470] CNT_EN = 0 -> CNT64 = 0 (0x0000000000000000)
# [t=      4490] CNT_EN = 0 -> CNT64 = 0 (0x0000000000000000)
# [t=      4510] CNT_EN = 0 -> CNT64 = 0 (0x0000000000000000)
# [t=      4530] CNT_EN = 0 -> CNT64 = 0 (0x0000000000000000)
# [t=      4550] CNT_EN = 0 -> CNT64 = 0 (0x0000000000000000)
# [t=      4570] CNT_EN = 0 -> CNT64 = 0 (0x0000000000000000)
# [t=      4590] CNT_EN = 0 -> CNT64 = 0 (0x0000000000000000)
# [t=      4610] CNT_EN = 0 -> CNT64 = 0 (0x0000000000000000)
# [t=      4630] CNT_EN = 0 -> CNT64 = 0 (0x0000000000000000)
# [t=      4650] CNT_EN = 0 -> CNT64 = 0 (0x0000000000000000)
# [t=      4670] CNT_EN = 0 -> CNT64 = 0 (0x0000000000000000)
# [t=      4690] CNT_EN = 0 -> CNT64 = 0 (0x0000000000000000)
# [t=      4710] CNT_EN = 0 -> CNT64 = 0 (0x0000000000000000)
# [t=      4730] CNT_EN = 0 -> CNT64 = 0 (0x0000000000000000)
# [t=      4750] CNT_EN = 0 -> CNT64 = 0 (0x0000000000000000)
# [t=      4770] CNT_EN = 1 -> CNT64 = 1 (0x0000000000000001)
# [ t =       4770 ] COUNTER VAL NOW = 64'h0000000000000001 
# -------------------------------------------------------------------------------------
# EXPECTED CNT64 = 1 (0x0000000000000001)
# ACTUAL   CNT64 = 1 (0x0000000000000001)
#    >>> PASS <<<
# -----------------------------------------
# -------------------------------------------------------------------------------------
# ----------------   1: STOP TIMER (timer_en=0)      ----------------------------------
# [ t =       4770 ] WRITE data=32'h00000000 to addr=12'h000 with strb=4'b1111 
# ---------     2: WRITE RELOAD (split from cnt[63:0] -> TDR0/TDR1    -----------------
# [ t =       4910 ] WRITE data=32'h00000000 to addr=12'h004 with strb=4'b1111 
# [ t =       4991 ] WRITE data=32'h00000000 to addr=12'h008 with strb=4'b1111 
# [ t =       5071 ] SETUP COUNTER INIT = 64'h0000000000000000 
# ---------       3: WRITE DIV_VAL + DIV_EN WHILE TIMER OFF     -----------------
# [ t =       5071 ] WRITE data=32'h00000502 to addr=12'h000 with strb=4'b1111 
# [ t =       5231 ] READ at addr = 12'h000 , the rdata actual = 32'h00000502 
# [ t =       5231 ] expect that rdata at addr=12'h000 is 32'h00000502 
# [ t =       5231 ]    >>>  PASS <<<     |   rdata actual =32'h00000502   =  rdata expect =32'h00000502 
# -------------------------------------------------------------------------------------
# [ t =       5231 ] SETUP DIV_VAL = 4'b0101 & DIV_EN = 1'b1 
# ----------------  4: START TIMER (timer_en=1)      ----------------------------------
# [ t =       5231 ] WRITE data=32'h00000503 to addr=12'h000 with strb=4'b1111 
# ----------------     5: AFTER          32 CYCLE      ----------------------------------
# [t=      5330] CNT_EN = 0 -> CNT64 = 0 (0x0000000000000000)
# [t=      5350] CNT_EN = 0 -> CNT64 = 0 (0x0000000000000000)
# [t=      5370] CNT_EN = 0 -> CNT64 = 0 (0x0000000000000000)
# [t=      5390] CNT_EN = 0 -> CNT64 = 0 (0x0000000000000000)
# [t=      5410] CNT_EN = 0 -> CNT64 = 0 (0x0000000000000000)
# [t=      5430] CNT_EN = 0 -> CNT64 = 0 (0x0000000000000000)
# [t=      5450] CNT_EN = 0 -> CNT64 = 0 (0x0000000000000000)
# [t=      5470] CNT_EN = 0 -> CNT64 = 0 (0x0000000000000000)
# [t=      5490] CNT_EN = 0 -> CNT64 = 0 (0x0000000000000000)
# [t=      5510] CNT_EN = 0 -> CNT64 = 0 (0x0000000000000000)
# [t=      5530] CNT_EN = 0 -> CNT64 = 0 (0x0000000000000000)
# [t=      5550] CNT_EN = 0 -> CNT64 = 0 (0x0000000000000000)
# [t=      5570] CNT_EN = 0 -> CNT64 = 0 (0x0000000000000000)
# [t=      5590] CNT_EN = 0 -> CNT64 = 0 (0x0000000000000000)
# [t=      5610] CNT_EN = 0 -> CNT64 = 0 (0x0000000000000000)
# [t=      5630] CNT_EN = 0 -> CNT64 = 0 (0x0000000000000000)
# [t=      5650] CNT_EN = 0 -> CNT64 = 0 (0x0000000000000000)
# [t=      5670] CNT_EN = 0 -> CNT64 = 0 (0x0000000000000000)
# [t=      5690] CNT_EN = 0 -> CNT64 = 0 (0x0000000000000000)
# [t=      5710] CNT_EN = 0 -> CNT64 = 0 (0x0000000000000000)
# [t=      5730] CNT_EN = 0 -> CNT64 = 0 (0x0000000000000000)
# [t=      5750] CNT_EN = 0 -> CNT64 = 0 (0x0000000000000000)
# [t=      5770] CNT_EN = 0 -> CNT64 = 0 (0x0000000000000000)
# [t=      5790] CNT_EN = 0 -> CNT64 = 0 (0x0000000000000000)
# [t=      5810] CNT_EN = 0 -> CNT64 = 0 (0x0000000000000000)
# [t=      5830] CNT_EN = 0 -> CNT64 = 0 (0x0000000000000000)
# [t=      5850] CNT_EN = 0 -> CNT64 = 0 (0x0000000000000000)
# [t=      5870] CNT_EN = 0 -> CNT64 = 0 (0x0000000000000000)
# [t=      5890] CNT_EN = 0 -> CNT64 = 0 (0x0000000000000000)
# [t=      5910] CNT_EN = 0 -> CNT64 = 0 (0x0000000000000000)
# [t=      5930] CNT_EN = 0 -> CNT64 = 0 (0x0000000000000000)
# [t=      5950] CNT_EN = 1 -> CNT64 = 1 (0x0000000000000001)
# [ t =       5950 ] COUNTER VAL NOW = 64'h0000000000000001 
# -------------------------------------------------------------------------------------
# EXPECTED CNT64 = 1 (0x0000000000000001)
# ACTUAL   CNT64 = 1 (0x0000000000000001)
#    >>> PASS <<<
# -----------------------------------------
# -------------------------------------------------------------------------------------
# ----------------   1: STOP TIMER (timer_en=0)      ----------------------------------
# [ t =       5950 ] WRITE data=32'h00000000 to addr=12'h000 with strb=4'b1111 
# ---------     2: WRITE RELOAD (split from cnt[63:0] -> TDR0/TDR1    -----------------
# [ t =       6090 ] WRITE data=32'h00000000 to addr=12'h004 with strb=4'b1111 
# [ t =       6171 ] WRITE data=32'h00000000 to addr=12'h008 with strb=4'b1111 
# [ t =       6251 ] SETUP COUNTER INIT = 64'h0000000000000000 
# ---------       3: WRITE DIV_VAL + DIV_EN WHILE TIMER OFF     -----------------
# [ t =       6251 ] WRITE data=32'h00000602 to addr=12'h000 with strb=4'b1111 
# [ t =       6411 ] READ at addr = 12'h000 , the rdata actual = 32'h00000602 
# [ t =       6411 ] expect that rdata at addr=12'h000 is 32'h00000602 
# [ t =       6411 ]    >>>  PASS <<<     |   rdata actual =32'h00000602   =  rdata expect =32'h00000602 
# -------------------------------------------------------------------------------------
# [ t =       6411 ] SETUP DIV_VAL = 4'b0110 & DIV_EN = 1'b1 
# ----------------  4: START TIMER (timer_en=1)      ----------------------------------
# [ t =       6411 ] WRITE data=32'h00000603 to addr=12'h000 with strb=4'b1111 
# ----------------     5: AFTER          64 CYCLE      ----------------------------------
# [t=      6510] CNT_EN = 0 -> CNT64 = 0 (0x0000000000000000)
# [t=      6530] CNT_EN = 0 -> CNT64 = 0 (0x0000000000000000)
# [t=      6550] CNT_EN = 0 -> CNT64 = 0 (0x0000000000000000)
# [t=      6570] CNT_EN = 0 -> CNT64 = 0 (0x0000000000000000)
# [t=      6590] CNT_EN = 0 -> CNT64 = 0 (0x0000000000000000)
# [t=      6610] CNT_EN = 0 -> CNT64 = 0 (0x0000000000000000)
# [t=      6630] CNT_EN = 0 -> CNT64 = 0 (0x0000000000000000)
# [t=      6650] CNT_EN = 0 -> CNT64 = 0 (0x0000000000000000)
# [t=      6670] CNT_EN = 0 -> CNT64 = 0 (0x0000000000000000)
# [t=      6690] CNT_EN = 0 -> CNT64 = 0 (0x0000000000000000)
# [t=      6710] CNT_EN = 0 -> CNT64 = 0 (0x0000000000000000)
# [t=      6730] CNT_EN = 0 -> CNT64 = 0 (0x0000000000000000)
# [t=      6750] CNT_EN = 0 -> CNT64 = 0 (0x0000000000000000)
# [t=      6770] CNT_EN = 0 -> CNT64 = 0 (0x0000000000000000)
# [t=      6790] CNT_EN = 0 -> CNT64 = 0 (0x0000000000000000)
# [t=      6810] CNT_EN = 0 -> CNT64 = 0 (0x0000000000000000)
# [t=      6830] CNT_EN = 0 -> CNT64 = 0 (0x0000000000000000)
# [t=      6850] CNT_EN = 0 -> CNT64 = 0 (0x0000000000000000)
# [t=      6870] CNT_EN = 0 -> CNT64 = 0 (0x0000000000000000)
# [t=      6890] CNT_EN = 0 -> CNT64 = 0 (0x0000000000000000)
# [t=      6910] CNT_EN = 0 -> CNT64 = 0 (0x0000000000000000)
# [t=      6930] CNT_EN = 0 -> CNT64 = 0 (0x0000000000000000)
# [t=      6950] CNT_EN = 0 -> CNT64 = 0 (0x0000000000000000)
# [t=      6970] CNT_EN = 0 -> CNT64 = 0 (0x0000000000000000)
# [t=      6990] CNT_EN = 0 -> CNT64 = 0 (0x0000000000000000)
# [t=      7010] CNT_EN = 0 -> CNT64 = 0 (0x0000000000000000)
# [t=      7030] CNT_EN = 0 -> CNT64 = 0 (0x0000000000000000)
# [t=      7050] CNT_EN = 0 -> CNT64 = 0 (0x0000000000000000)
# [t=      7070] CNT_EN = 0 -> CNT64 = 0 (0x0000000000000000)
# [t=      7090] CNT_EN = 0 -> CNT64 = 0 (0x0000000000000000)
# [t=      7110] CNT_EN = 0 -> CNT64 = 0 (0x0000000000000000)
# [t=      7130] CNT_EN = 0 -> CNT64 = 0 (0x0000000000000000)
# [t=      7150] CNT_EN = 0 -> CNT64 = 0 (0x0000000000000000)
# [t=      7170] CNT_EN = 0 -> CNT64 = 0 (0x0000000000000000)
# [t=      7190] CNT_EN = 0 -> CNT64 = 0 (0x0000000000000000)
# [t=      7210] CNT_EN = 0 -> CNT64 = 0 (0x0000000000000000)
# [t=      7230] CNT_EN = 0 -> CNT64 = 0 (0x0000000000000000)
# [t=      7250] CNT_EN = 0 -> CNT64 = 0 (0x0000000000000000)
# [t=      7270] CNT_EN = 0 -> CNT64 = 0 (0x0000000000000000)
# [t=      7290] CNT_EN = 0 -> CNT64 = 0 (0x0000000000000000)
# [t=      7310] CNT_EN = 0 -> CNT64 = 0 (0x0000000000000000)
# [t=      7330] CNT_EN = 0 -> CNT64 = 0 (0x0000000000000000)
# [t=      7350] CNT_EN = 0 -> CNT64 = 0 (0x0000000000000000)
# [t=      7370] CNT_EN = 0 -> CNT64 = 0 (0x0000000000000000)
# [t=      7390] CNT_EN = 0 -> CNT64 = 0 (0x0000000000000000)
# [t=      7410] CNT_EN = 0 -> CNT64 = 0 (0x0000000000000000)
# [t=      7430] CNT_EN = 0 -> CNT64 = 0 (0x0000000000000000)
# [t=      7450] CNT_EN = 0 -> CNT64 = 0 (0x0000000000000000)
# [t=      7470] CNT_EN = 0 -> CNT64 = 0 (0x0000000000000000)
# [t=      7490] CNT_EN = 0 -> CNT64 = 0 (0x0000000000000000)
# [t=      7510] CNT_EN = 0 -> CNT64 = 0 (0x0000000000000000)
# [t=      7530] CNT_EN = 0 -> CNT64 = 0 (0x0000000000000000)
# [t=      7550] CNT_EN = 0 -> CNT64 = 0 (0x0000000000000000)
# [t=      7570] CNT_EN = 0 -> CNT64 = 0 (0x0000000000000000)
# [t=      7590] CNT_EN = 0 -> CNT64 = 0 (0x0000000000000000)
# [t=      7610] CNT_EN = 0 -> CNT64 = 0 (0x0000000000000000)
# [t=      7630] CNT_EN = 0 -> CNT64 = 0 (0x0000000000000000)
# [t=      7650] CNT_EN = 0 -> CNT64 = 0 (0x0000000000000000)
# [t=      7670] CNT_EN = 0 -> CNT64 = 0 (0x0000000000000000)
# [t=      7690] CNT_EN = 0 -> CNT64 = 0 (0x0000000000000000)
# [t=      7710] CNT_EN = 0 -> CNT64 = 0 (0x0000000000000000)
# [t=      7730] CNT_EN = 0 -> CNT64 = 0 (0x0000000000000000)
# [t=      7750] CNT_EN = 0 -> CNT64 = 0 (0x0000000000000000)
# [t=      7770] CNT_EN = 1 -> CNT64 = 1 (0x0000000000000001)
# [ t =       7770 ] COUNTER VAL NOW = 64'h0000000000000001 
# -------------------------------------------------------------------------------------
# EXPECTED CNT64 = 1 (0x0000000000000001)
# ACTUAL   CNT64 = 1 (0x0000000000000001)
#    >>> PASS <<<
# -----------------------------------------
# -------------------------------------------------------------------------------------
# ----------------   1: STOP TIMER (timer_en=0)      ----------------------------------
# [ t =       7770 ] WRITE data=32'h00000000 to addr=12'h000 with strb=4'b1111 
# ---------     2: WRITE RELOAD (split from cnt[63:0] -> TDR0/TDR1    -----------------
# [ t =       7910 ] WRITE data=32'h00000000 to addr=12'h004 with strb=4'b1111 
# [ t =       7991 ] WRITE data=32'h00000000 to addr=12'h008 with strb=4'b1111 
# [ t =       8071 ] SETUP COUNTER INIT = 64'h0000000000000000 
# ---------       3: WRITE DIV_VAL + DIV_EN WHILE TIMER OFF     -----------------
# [ t =       8071 ] WRITE data=32'h00000702 to addr=12'h000 with strb=4'b1111 
# [ t =       8231 ] READ at addr = 12'h000 , the rdata actual = 32'h00000702 
# [ t =       8231 ] expect that rdata at addr=12'h000 is 32'h00000702 
# [ t =       8231 ]    >>>  PASS <<<     |   rdata actual =32'h00000702   =  rdata expect =32'h00000702 
# -------------------------------------------------------------------------------------
# [ t =       8231 ] SETUP DIV_VAL = 4'b0111 & DIV_EN = 1'b1 
# ----------------  4: START TIMER (timer_en=1)      ----------------------------------
# [ t =       8231 ] WRITE data=32'h00000703 to addr=12'h000 with strb=4'b1111 
# ----------------     5: AFTER         128 CYCLE      ----------------------------------
# [t=      8330] CNT_EN = 0 -> CNT64 = 0 (0x0000000000000000)
# [t=      8350] CNT_EN = 0 -> CNT64 = 0 (0x0000000000000000)
# [t=      8370] CNT_EN = 0 -> CNT64 = 0 (0x0000000000000000)
# [t=      8390] CNT_EN = 0 -> CNT64 = 0 (0x0000000000000000)
# [t=      8410] CNT_EN = 0 -> CNT64 = 0 (0x0000000000000000)
# [t=      8430] CNT_EN = 0 -> CNT64 = 0 (0x0000000000000000)
# [t=      8450] CNT_EN = 0 -> CNT64 = 0 (0x0000000000000000)
# [t=      8470] CNT_EN = 0 -> CNT64 = 0 (0x0000000000000000)
# [t=      8490] CNT_EN = 0 -> CNT64 = 0 (0x0000000000000000)
# [t=      8510] CNT_EN = 0 -> CNT64 = 0 (0x0000000000000000)
# [t=      8530] CNT_EN = 0 -> CNT64 = 0 (0x0000000000000000)
# [t=      8550] CNT_EN = 0 -> CNT64 = 0 (0x0000000000000000)
# [t=      8570] CNT_EN = 0 -> CNT64 = 0 (0x0000000000000000)
# [t=      8590] CNT_EN = 0 -> CNT64 = 0 (0x0000000000000000)
# [t=      8610] CNT_EN = 0 -> CNT64 = 0 (0x0000000000000000)
# [t=      8630] CNT_EN = 0 -> CNT64 = 0 (0x0000000000000000)
# [t=      8650] CNT_EN = 0 -> CNT64 = 0 (0x0000000000000000)
# [t=      8670] CNT_EN = 0 -> CNT64 = 0 (0x0000000000000000)
# [t=      8690] CNT_EN = 0 -> CNT64 = 0 (0x0000000000000000)
# [t=      8710] CNT_EN = 0 -> CNT64 = 0 (0x0000000000000000)
# [t=      8730] CNT_EN = 0 -> CNT64 = 0 (0x0000000000000000)
# [t=      8750] CNT_EN = 0 -> CNT64 = 0 (0x0000000000000000)
# [t=      8770] CNT_EN = 0 -> CNT64 = 0 (0x0000000000000000)
# [t=      8790] CNT_EN = 0 -> CNT64 = 0 (0x0000000000000000)
# [t=      8810] CNT_EN = 0 -> CNT64 = 0 (0x0000000000000000)
# [t=      8830] CNT_EN = 0 -> CNT64 = 0 (0x0000000000000000)
# [t=      8850] CNT_EN = 0 -> CNT64 = 0 (0x0000000000000000)
# [t=      8870] CNT_EN = 0 -> CNT64 = 0 (0x0000000000000000)
# [t=      8890] CNT_EN = 0 -> CNT64 = 0 (0x0000000000000000)
